<?xml version="1.0" encoding="UTF-8"?>
<svg width="20px" height="20px" viewBox="0 0 20 20" version="1.1" xmlns="http://www.w3.org/2000/svg" xmlns:xlink="http://www.w3.org/1999/xlink">
    <!-- Generator: Sketch 48.2 (47327) - http://www.bohemiancoding.com/sketch -->
    <title>Components/Icons/arrow-left-default</title>
    <desc>Created with Sketch.</desc>
    <defs></defs>
    <g id="Symbols" stroke="none" stroke-width="1" fill="none" fill-rule="evenodd">
        <g id="Components/Icons/arrow-left-default" fill="#C5CFDB" fill-rule="nonzero">
            <polygon id="Shape-Copy" points="10 2 11.41 3.41 5.83 9 18 9 18 11 5.83 11 11.41 16.59 10 18 2 10"></polygon>
        </g>
    </g>
</svg>