<?xml version="1.0" encoding="UTF-8"?>
<svg width="8px" height="4px" viewBox="0 0 8 4" version="1.1" xmlns="http://www.w3.org/2000/svg" xmlns:xlink="http://www.w3.org/1999/xlink">
    <!-- Generator: Sketch 48.2 (47327) - http://www.bohemiancoding.com/sketch -->
    <title>Components/Icons/arrowhead-down-white</title>
    <desc>Created with Sketch.</desc>
    <defs></defs>
    <g id="Symbols" stroke="none" stroke-width="1" fill="none" fill-rule="evenodd">
        <g id="Components/Icons/arrowhead-down-white" fill="#FAFAFA" fill-rule="nonzero">
            <g id="Arrowhead-down">
                <polygon id="Shape" points="0 0 4 4 8 0"></polygon>
            </g>
        </g>
    </g>
</svg>