<?xml version="1.0" encoding="UTF-8"?>
<svg width="24px" height="24px" viewBox="0 0 24 24" version="1.1" xmlns="http://www.w3.org/2000/svg" xmlns:xlink="http://www.w3.org/1999/xlink">
    <!-- Generator: Sketch 48.2 (47327) - http://www.bohemiancoding.com/sketch -->
    <title>Components/Icons/Attachment-grey</title>
    <desc>Created with Sketch.</desc>
    <defs></defs>
    <g id="Symbols" stroke="none" stroke-width="1" fill="none" fill-rule="evenodd">
        <g id="Components/Icons/Attachment-grey" fill="#C5CFDB" fill-rule="nonzero">
            <g id="attachment-clip-(1)" transform="translate(0.000000, 5.000000)">
                <path d="M6.6,13.2352941 C3,13.2352941 0,10.2352941 0,6.63529412 C0,3.03529412 3,0.0352941176 6.6,0.0352941176 L19.2,0.0352941176 C21.84,0.0352941176 24,2.19529412 24,4.83529412 C24,7.47529412 21.84,9.63529412 19.2,9.63529412 L9,9.63529412 C7.32,9.63529412 6,8.31529412 6,6.63529412 C6,4.95529412 7.32,3.63529412 9,3.63529412 L18,3.63529412 L18,5.43529412 L9,5.43529412 C8.28,5.43529412 7.8,5.91529412 7.8,6.63529412 C7.8,7.35529412 8.28,7.83529412 9,7.83529412 L19.2,7.83529412 C20.88,7.83529412 22.2,6.51529412 22.2,4.83529412 C22.2,3.15529412 20.88,1.83529412 19.2,1.83529412 L6.6,1.83529412 C3.96,1.83529412 1.8,3.99529412 1.8,6.63529412 C1.8,9.27529412 3.96,11.4352941 6.6,11.4352941 L18,11.4352941 L18,13.2352941 L6.6,13.2352941 Z" id="Shape"></path>
            </g>
        </g>
    </g>
</svg>