<?xml version="1.0" encoding="UTF-8"?>
<svg width="10px" height="10px" viewBox="0 0 10 10" version="1.1" xmlns="http://www.w3.org/2000/svg" xmlns:xlink="http://www.w3.org/1999/xlink">
    <!-- Generator: Sketch 48.2 (47327) - http://www.bohemiancoding.com/sketch -->
    <title>Components/Icons/Close-grey</title>
    <desc>Created with Sketch.</desc>
    <defs></defs>
    <g id="Symbols" stroke="none" stroke-width="1" fill="none" fill-rule="evenodd">
        <g id="Components/Icons/Close-grey" fill="#ADB5C4" fill-rule="nonzero">
            <path d="M3.93777638,5 L0.219993715,8.71778267 C-0.0733312382,9.01110762 -0.0733312382,9.48668133 0.219993715,9.78000629 C0.513318667,10.0733312 0.988892381,10.0733312 1.28221733,9.78000629 L5,6.06222362 L8.71778267,9.78000629 C9.01110762,10.0733312 9.48668133,10.0733312 9.78000629,9.78000629 C10.0733312,9.48668133 10.0733312,9.01110762 9.78000629,8.71778267 L6.06222362,5 L9.78000629,1.28221733 C10.0733312,0.988892381 10.0733312,0.513318667 9.78000629,0.219993715 C9.48668133,-0.0733312382 9.01110762,-0.0733312382 8.71778267,0.219993715 L5,3.93777638 L1.28221733,0.219993715 C0.988892381,-0.0733312382 0.513318667,-0.0733312382 0.219993715,0.219993715 C-0.0733312382,0.513318667 -0.0733312382,0.988892381 0.219993715,1.28221733 L3.93777638,5 Z" id="cross"></path>
        </g>
    </g>
</svg>