<?xml version="1.0" encoding="UTF-8"?>
<svg width="20px" height="20px" viewBox="0 0 20 20" version="1.1" xmlns="http://www.w3.org/2000/svg" xmlns:xlink="http://www.w3.org/1999/xlink">
    <!-- Generator: Sketch 48.2 (47327) - http://www.bohemiancoding.com/sketch -->
    <title>Components/Icons/edit-active</title>
    <desc>Created with Sketch.</desc>
    <defs></defs>
    <g id="Symbols" stroke="none" stroke-width="1" fill="none" fill-rule="evenodd">
        <g id="Components/Icons/edit-active" fill="#992E2E" fill-rule="nonzero">
            <g id="ic_mode_edit_18px" transform="translate(2.000000, 2.000000)">
                <path d="M0,12.6736632 L0,16 L3.32633683,16 L12.7936032,6.53273363 L9.46726637,3.2063968 L0,12.6736632 Z M15.7361319,3.60086623 C16.087956,3.24904215 16.087956,2.69465267 15.7361319,2.34282859 L13.6571714,0.263868066 C13.3053473,-0.087956022 12.7509579,-0.087956022 12.3991338,0.263868066 L10.661336,2.01232717 L13.9876728,5.338664 L15.7361319,3.60086623 Z" id="Shape"></path>
            </g>
        </g>
    </g>
</svg>