<?xml version="1.0" encoding="UTF-8"?>
<svg width="24px" height="24px" viewBox="0 0 24 24" version="1.1" xmlns="http://www.w3.org/2000/svg" xmlns:xlink="http://www.w3.org/1999/xlink">
    <!-- Generator: Sketch 48.2 (47327) - http://www.bohemiancoding.com/sketch -->
    <title>Components/Icons/Emoji-default</title>
    <desc>Created with Sketch.</desc>
    <defs></defs>
    <g id="Symbols" stroke="none" stroke-width="1" fill="none" fill-rule="evenodd">
        <g id="Components/Icons/Emoji-default" fill="#C5CFDB" fill-rule="nonzero">
            <g id="ic_emoji_24px">
                <path d="M11.9998378,0 C5.38313514,0 0,5.38313514 0,11.9998378 C0,18.6165405 5.38313514,23.9996757 11.9998378,23.9996757 C18.6165405,23.9996757 23.9996757,18.6165405 23.9996757,11.9998378 C23.9996757,5.38313514 18.6166216,0 11.9998378,0 Z M11.9998378,22.7023784 C9.06008108,22.7023784 6.39364865,21.5108108 4.45743243,19.5856216 C3.68424324,18.8168108 3.02789189,17.9307568 2.51683784,16.956973 C1.73854054,15.4740811 1.2972973,13.7875946 1.2972973,11.9998378 C1.2972973,6.09843243 6.09843243,1.2972973 11.9998378,1.2972973 C14.799,1.2972973 17.3501351,2.37794595 19.2592703,4.14340541 C20.2491081,5.05864865 21.0664865,6.15778378 21.6558649,7.38632432 C22.3264054,8.78408108 22.7023784,10.3488649 22.7023784,11.9998378 C22.7023784,17.9012432 17.9012432,22.7023784 11.9998378,22.7023784 Z" id="Shape"></path>
                <path d="M7.89810811,9.27567568 C8.59540541,9.27567568 9.16272973,9.81056757 9.16272973,10.5402973 L10.460027,10.5402973 C10.460027,9.08083784 9.31078378,7.97837838 7.89810811,7.97837838 C6.48543243,7.97837838 5.33618919,9.08083784 5.33618919,10.5402973 L6.63348649,10.5402973 C6.63348649,9.81056757 7.20089189,9.27567568 7.89810811,9.27567568 Z" id="Shape"></path>
                <path d="M16.1014054,9.27567568 C16.7987027,9.27567568 17.366027,9.81056757 17.366027,10.5402973 L18.6633243,10.5402973 C18.6633243,9.08083784 17.5140811,7.97837838 16.1014054,7.97837838 C14.6887297,7.97837838 13.5394865,9.08083784 13.5394865,10.5402973 L14.8367838,10.5402973 C14.8367838,9.81056757 15.4041081,9.27567568 16.1014054,9.27567568 Z" id="Shape"></path>
                <path d="M11.9768919,18.6482432 C14.4866757,18.6482432 16.8919459,17.3647297 18.2691081,15.2336757 L17.1794595,14.5295676 C15.9149189,16.4864595 13.601027,17.5786216 11.2854324,17.3112973 C9.48040541,17.1031622 7.81118919,16.0632162 6.82013514,14.5295676 L5.73056757,15.2336757 C6.92975676,17.0895405 8.95078378,18.3479189 11.1367297,18.6 C11.4173514,18.6324324 11.6975676,18.6482432 11.9768919,18.6482432 Z" id="Shape"></path>
            </g>
        </g>
    </g>
</svg>