<?xml version="1.0" encoding="UTF-8"?>
<svg width="20px" height="20px" viewBox="0 0 20 20" version="1.1" xmlns="http://www.w3.org/2000/svg" xmlns:xlink="http://www.w3.org/1999/xlink">
    <!-- Generator: Sketch 48.2 (47327) - http://www.bohemiancoding.com/sketch -->
    <title>Components/Icons/mark-default</title>
    <desc>Created with Sketch.</desc>
    <defs></defs>
    <g id="Symbols" stroke="none" stroke-width="1" fill="none" fill-rule="evenodd">
        <g id="Components/Icons/mark-default" fill="#992E2E" fill-rule="nonzero">
            <path d="M16.9338541,2.5467373 C16.7916848,2.34253883 16.6002367,2.19320936 16.3599312,2.09848087 C16.2068876,2.03296735 16.0464924,2.00015316 15.8788223,2.00015316 L15.8788223,2 L4.42203569,2 C4.25444208,2 4.09420007,2.03281419 3.94111822,2.09832771 C3.70065949,2.19297962 3.50928803,2.34250054 3.3671953,2.54658414 C3.22514085,2.75066775 3.15399876,2.97649986 3.15399876,3.22434848 L3.15399876,17.3156515 C3.15399876,17.5635767 3.22514085,17.7893322 3.3671953,17.9936073 C3.50928803,18.1976526 3.70065949,18.3471352 3.94111822,18.4417488 C4.09404691,18.5072623 4.25444208,18.54 4.42203569,18.54 C4.76468938,18.54 5.06698583,18.419694 5.3294228,18.1793884 L10.1504673,13.543972 L14.9715117,18.1795033 C15.2266354,18.4123424 15.529085,18.5289726 15.878784,18.5289726 C16.0610425,18.5289726 16.2213994,18.5000256 16.3598929,18.4417105 C16.6001985,18.3470969 16.7916465,18.1976143 16.9338158,17.9933009 C17.0758702,17.7892939 17.1468592,17.5635001 17.1468592,17.3156132 L17.1468592,3.22450164 C17.1468975,2.97665301 17.0757554,2.75082091 16.9338541,2.5467373 Z M15.7476421,16.9765587 L11.1234445,12.5382189 L10.1504673,11.6091599 L9.17756663,12.5382189 L4.55340733,16.9765587 L4.55340733,3.39944686 L15.7476421,3.39944686 L15.7476421,16.9765587 Z" id="Shape"></path>
        </g>
    </g>
</svg>