<?xml version="1.0" encoding="UTF-8"?>
<svg width="14px" height="14px" viewBox="0 0 14 14" version="1.1" xmlns="http://www.w3.org/2000/svg" xmlns:xlink="http://www.w3.org/1999/xlink">
    <!-- Generator: Sketch 48.2 (47327) - http://www.bohemiancoding.com/sketch -->
    <title>Components/Icons/Minus</title>
    <desc>Created with Sketch.</desc>
    <defs></defs>
    <g id="Symbols" stroke="none" stroke-width="1" fill="none" fill-rule="evenodd">
        <g id="Components/Icons/Minus" fill="#CC1433" fill-rule="nonzero">
            <path d="M7,14 C3.136,14 0,10.864 0,7 C0,3.136 3.136,0 7,0 C10.864,0 14,3.136 14,7 C14,10.864 10.864,14 7,14 Z M3,6 L3,8 L11,8 L11,6 L3,6 Z" id="Shape-Copy"></path>
        </g>
    </g>
</svg>