<?xml version="1.0" encoding="UTF-8"?>
<svg width="24px" height="19px" viewBox="0 0 24 19" version="1.1" xmlns="http://www.w3.org/2000/svg" xmlns:xlink="http://www.w3.org/1999/xlink">
    <!-- Generator: Sketch 48.2 (47327) - http://www.bohemiancoding.com/sketch -->
    <title>Components/Icons/Picture-grey</title>
    <desc>Created with Sketch.</desc>
    <defs></defs>
    <g id="Symbols" stroke="none" stroke-width="1" fill="none" fill-rule="evenodd">
        <g id="Components/Icons/Picture-grey" fill="#C8D2DB" fill-rule="nonzero">
            <g id="mountain-painting">
                <g id="Group">
                    <g id="Vector">
                        <g id="path48_fill-link">
                            <path d="M23.5446,0.44954 C23.2424,0.15287 22.8814,-1.1485e-08 22.439,-1.1485e-08 L1.57404,-1.1485e-08 C1.13169,-1.1485e-08 0.757608,0.15287 0.455098,0.44954 C0.159294,0.73955 0,1.09854 0,1.51056 L0,17.4894 C0,17.9015 0.152627,18.2665 0.455098,18.563 C0.751216,18.8533 1.13165,19 1.57404,19 L22.439,19 C22.8813,19 23.2487,18.8533 23.5446,18.563 C23.8471,18.2665 24,17.9015 24,17.4894 L24,1.51056 C24,1.09854 23.8407,0.73955 23.5446,0.44954 Z M22.5692,17.4894 C22.5692,17.5768 22.53,17.6143 22.439,17.6143 L1.57404,17.6143 C1.48275,17.6143 1.44388,17.5768 1.44388,17.4894 L1.44388,1.51056 C1.44388,1.42321 1.48275,1.38565 1.57404,1.38565 L22.439,1.38565 C22.53,1.38565 22.5691,1.42321 22.5691,1.51056 L22.5691,17.4894 L22.5692,17.4894 Z" id="path48_fill"></path>
                        </g>
                    </g>
                    <g id="Vector" transform="translate(15.000000, 5.000000)">
                        <g id="path49_fill-link" transform="translate(0.960000, 0.755000)">
                            <path d="M1.22275,2.38435 C1.91208,2.38435 2.47153,1.83519 2.47153,1.1734 C2.47153,0.536889 1.91208,-2.84829e-07 1.22275,-2.84829e-07 C0.559216,-2.84829e-07 -4.49985e-07,0.536889 -4.49985e-07,1.1734 C-4.49985e-07,1.83519 0.559216,2.38435 1.22275,2.38435 Z" id="path49_fill"></path>
                        </g>
                    </g>
                    <g id="Vector" transform="translate(2.000000, 5.000000)">
                        <g id="path50_fill-link" transform="translate(0.820000, 0.505000)">
                            <polygon id="path50_fill" points="10.6795 6.7909 5.41122 -1.60791e-07 0.637177 9.37502 8.85608e-08 10.7609 18.2502 10.7609 13.3203 4.59404"></polygon>
                        </g>
                    </g>
                </g>
            </g>
        </g>
    </g>
</svg>