<?xml version="1.0" encoding="UTF-8"?>
<svg width="16px" height="16px" viewBox="0 0 16 16" version="1.1" xmlns="http://www.w3.org/2000/svg" xmlns:xlink="http://www.w3.org/1999/xlink">
    <!-- Generator: Sketch 48.2 (47327) - http://www.bohemiancoding.com/sketch -->
    <title>Components/Icons/Share-default</title>
    <desc>Created with Sketch.</desc>
    <defs></defs>
    <g id="Symbols" stroke="none" stroke-width="1" fill="none" fill-rule="evenodd">
        <g id="Components/Icons/Share-default" fill="#C5CFDB" fill-rule="nonzero">
            <g id="share">
                <g id="Group">
                    <g id="Vector">
                        <g id="path47_fill-link" transform="translate(8.228000, 8.000000) scale(-1, 1) translate(-8.228000, -8.000000) translate(0.728000, 0.000000)">
                            <path d="M12.09184,10.27904 C11.1812,10.27904 10.36912,10.7176 9.84968,11.39536 L5.500176,8.94024 C5.602096,8.64448 5.657984,8.3256 5.657984,7.99668 C5.657984,7.664448 5.602096,7.34884 5.496888,7.049832 L9.84312,4.598008 C10.35928,5.279072 11.17456,5.720928 12.08856,5.720928 C13.64688,5.720928 14.9192,4.438536 14.9192,2.860464 C14.9192,1.282392 13.65016,0 12.08856,0 C10.52696,0 9.25792,1.282392 9.25792,2.860464 C9.25792,3.192688 9.31384,3.511624 9.41904,3.807312 L5.076072,6.259136 C4.55992,5.574752 3.744592,5.136216 2.830632,5.136216 C1.272304,5.136216 7.83828e-09,6.418608 7.83828e-09,7.99668 C7.83828e-09,9.57472 1.272304,10.85712 2.83392,10.85712 C3.74788,10.85712 4.563208,10.41528 5.082648,9.73088 L9.42888,12.18608 C9.32368,12.48504 9.26448,12.80728 9.26448,13.13952 C9.26448,14.71432 10.53352,16 12.09512,16 C13.65672,16 14.92576,14.7176 14.92576,13.13952 C14.92576,11.56144 13.65344,10.27904 12.09184,10.27904 Z M12.09184,0.900336 C13.1636,0.900336 14.0348,1.780728 14.0348,2.863784 C14.0348,3.94684 13.1636,4.82724 12.09184,4.82724 C11.02008,4.82724 10.14888,3.94684 10.14888,2.863784 C10.14888,1.780728 11.02336,0.900336 12.09184,0.900336 Z M2.83392,9.96016 C1.76216,9.96016 0.890944002,9.07976 0.890944002,7.99668 C0.890944002,6.913624 1.76216,6.033224 2.83392,6.033224 C3.905688,6.033224 4.776904,6.913624 4.776904,7.99668 C4.776904,9.07976 3.9024,9.96016 2.83392,9.96016 Z M12.09184,15.09968 C11.02008,15.09968 10.14888,14.21928 10.14888,13.13624 C10.14888,12.05312 11.02008,11.17272 12.09184,11.17272 C13.1636,11.17272 14.0348,12.05312 14.0348,13.13624 C14.0348,14.21928 13.1636,15.09968 12.09184,15.09968 Z" id="path47_fill"></path>
                        </g>
                    </g>
                </g>
            </g>
        </g>
    </g>
</svg>