<?xml version="1.0" encoding="UTF-8"?>
<svg width="20px" height="20px" viewBox="0 0 20 20" version="1.1" xmlns="http://www.w3.org/2000/svg" xmlns:xlink="http://www.w3.org/1999/xlink">
    <!-- Generator: Sketch 48.2 (47327) - http://www.bohemiancoding.com/sketch -->
    <title>Components/Icons/volunteer-default</title>
    <desc>Created with Sketch.</desc>
    <defs></defs>
    <g id="Symbols" stroke="none" stroke-width="1" fill="none" fill-rule="evenodd">
        <g id="Components/Icons/volunteer-default" stroke="#992E2E" stroke-width="1.5">
            <path d="M9.88018779,19.2153903 L8.11725743,18.3807435 C8.09113624,18.3683767 8.06617344,18.3536267 8.04267614,18.3366752 L4.44856915,15.7437963 C4.418311,15.7219673 4.39066702,15.6966203 4.36619963,15.668271 L1.85046553,10.9224146 C1.62760309,10.6641938 1.6529535,10.2712932 1.90708725,10.0448466 C1.93990994,10.0155999 1.97571815,9.99000541 2.01390047,9.96850022 C2.4204959,9.73949607 2.91976912,9.7648077 3.3019106,10.0337984 L6.0407924,11.9617069 C6.13405581,12.0273553 6.24731828,12.0570231 6.36019393,12.0453703 L7.07345417,11.9717368 C7.20431604,11.9582273 7.29962224,11.839485 7.28632652,11.7065186 L7.64929158,3.65200048 C9.02253186,1.82101344 13.1422527,1.82101344 14.9732397,3.19425372 C16.8042268,4.567494 16.916247,13.6121718 16.8042268,14.180176 C16.6935993,14.7411181 16.1631283,16.1343954 15.6517845,17.2756187 C15.5584966,17.4838463 15.5408009,17.718917 15.6018463,17.9391355 L15.6173233,17.9949679" id="Path-2-Copy"></path>
        </g>
    </g>
</svg>