<?xml version="1.0" encoding="UTF-8"?>
<svg width="18px" height="20px" viewBox="0 0 18 20" version="1.1" xmlns="http://www.w3.org/2000/svg" xmlns:xlink="http://www.w3.org/1999/xlink">
    <!-- Generator: Sketch 48.2 (47327) - http://www.bohemiancoding.com/sketch -->
    <title>Components/Icons/Notifications-active</title>
    <desc>Created with Sketch.</desc>
    <defs></defs>
    <g id="Symbols" stroke="none" stroke-width="1" fill="none" fill-rule="evenodd">
        <g id="Components/Icons/Notifications-active" fill="#CC1433" fill-rule="nonzero">
            <path d="M8.67428571,20 C9.79684034,20 10.7152941,19.1 10.7152941,18 L6.63327731,18 C6.63327731,19.1 7.55173109,20 8.67428571,20 Z M15.307563,14 L15.307563,8.5 C15.307563,5.4 13.1645042,2.9 10.205042,2.2 L10.205042,1.5 C10.205042,0.7 9.49068908,0 8.67428571,0 C7.85788235,0 7.14352941,0.7 7.14352941,1.5 L7.14352941,2.2 C4.18406723,2.9 2.0410084,5.4 2.0410084,8.5 L2.0410084,14 L0,16 L0,17 L17.3485714,17 L17.3485714,16 L15.307563,14 Z" id="Shape"></path>
        </g>
    </g>
</svg>