<?xml version="1.0" encoding="UTF-8"?>
<svg width="20px" height="20px" viewBox="0 0 20 20" version="1.1" xmlns="http://www.w3.org/2000/svg" xmlns:xlink="http://www.w3.org/1999/xlink">
    <!-- Generator: Sketch 48.2 (47327) - http://www.bohemiancoding.com/sketch -->
    <title>Components/Icons/search</title>
    <desc>Created with Sketch.</desc>
    <defs></defs>
    <g id="Symbols" stroke="none" stroke-width="1" fill="none" fill-rule="evenodd">
        <g id="Components/Icons/search" fill="#C5CFDB" fill-rule="nonzero">
            <g id="Icons/search">
                <path d="M14.6644924,13.1766967 L19.6918674,18.2040718 C20.1027109,18.6149152 20.1027109,19.281024 19.6918674,19.6918674 C19.281024,20.1027109 18.6149152,20.1027109 18.2040718,19.6918674 L13.1766967,14.6644924 C11.7949193,15.7306901 10.0627547,16.3649169 8.18245843,16.3649169 C3.66341142,16.3649169 0,12.7015054 0,8.18245843 C0,3.66341142 3.66341142,0 8.18245843,0 C12.7015054,0 16.3649169,3.66341142 16.3649169,8.18245843 C16.3649169,10.0627547 15.7306901,11.7949193 14.6644924,13.1766967 Z M8.18245843,14.2608561 C11.5394648,14.2608561 14.2608561,11.5394648 14.2608561,8.18245843 C14.2608561,4.82545208 11.5394648,2.10406074 8.18245843,2.10406074 C4.82545208,2.10406074 2.10406074,4.82545208 2.10406074,8.18245843 C2.10406074,11.5394648 4.82545208,14.2608561 8.18245843,14.2608561 Z" id="Combined-Shape"></path>
            </g>
        </g>
    </g>
</svg>